{
  "status": "success",
  "book": {
    "title": "Wirtschaftskapitalismus",
    "author": "Peter Müller",
    "color": "rgb(255,255,255)",
    "image": {
      "description": null,
      "image_orginal_path": "http://oer-back-end.test/images/1530623423_original.jpg",
      "image_path": "assets/images/main.jpg",
      "image_thumb_path": "http://oer-back-end.test/images/1530623423_300_200.jpg",
      "width_original": 2880,
      "width": 1920,
      "width_thumb": 300,
      "height_original": 2048,
      "height": 1365,
      "height_thumb": 200,
      "size_original": 711555,
      "size": 391439,
      "size_thumb": 14836
    },
    "chapters": [
      {
        "title": "Titel - Kapitel 1",
        "introduction": "Die Beschäftigung mit dem Thema „Wirtschaftspolitik“ soll mit einem Blick in die ferne Zukunft beginnen. Wie werden Sie, wie werden Ihre Kinder oder Enkelkinder in 20 Jahren, in 50 Jahren, in 100 Jahren leben und wirtschaften?",
        "learning_sections": [
          {
            "title": "Nichts mehr zu tun:<br/>Auf dem Weg zur <i>wirtschaftlichen Seligkeit?</i>",
            "introduction": "Der berühmte britische Ökonom John Maynard Keynes stellte<br/>die folgende Prognose bereits im Jahr 1930 auf. Sie ist bisher nur teilweise eingetreten. Ob sie sich in den nächsten 100 Jahren bewahrheitet?",
            "content": [
              {
                "type": "image",
                "image": {
                  "description": "some nice habour",
                  "image_orginal_path": "assets/images/test1.jpg",
                  "image_path": "assets/images/test1.jpg",
                  "image_thumb_path": "assets/images/test1.jpg",
                  "width_original": 2170,
                  "width": 2170,
                  "width_thumb": 2170,
                  "height_original": 1446,
                  "height": 1446,
                  "height_thumb": 1446,
                  "size_original": 711555,
                  "size": 391439,
                  "size_thumb": 14836
                }
              },
              {
                "type": "text",
                "text": "Für lange Zeiten wird der alte Adam in uns noch so mächtig sein, dass jedermann wünschen wird, irgendeine Arbeit tun. Mit Drei-Stunden-Schichten oder einer Fünfzehn-Stunden-Woche kann das Problem eine ganze Weile hinausgeschoben werden. Denn drei Stunden Tag reichen völlig aus, um den alten Adam in den meisten von uns zu befriedigen! Die Geschwindigkeit, mit der wir unserem Ziel der wirtschaftlichen Seligkeit näherkommen, wird von vier Dingen bestimmt werden – unserer Macht, das Bevölkerungswachstum zu regulieren; unserer Entschlossenheit, Kriege und Aus-einandersetzungen im Inneren zu vermeiden; unserer Bereitschaft, der einen Wissenschaft die Lenkung jener Dinge anzuvertrauen, die das eigentliche Gebiet."
              },
              {
                "type": "video",
                "source": "https://vimeo.com/64048942",
                "description": "some nice vimeo video"
              },
              {
                "type": "text",
                "text": "Für lange Zeiten wird der alte Adam in uns noch so mächtig sein, dass jedermann wünschen wird, irgendeine Arbeit tun. Mit Drei-Stunden-Schichten oder einer Fünfzehn-Stunden-Woche kann das Problem eine ganze Weile hinausgeschoben werden. Denn drei Stunden Tag reichen völlig aus, um den alten Adam in den meisten von uns zu befriedigen! Die Geschwindigkeit, mit der wir unserem Ziel der wirtschaftlichen Seligkeit näherkommen, wird von vier Dingen bestimmt werden – unserer Macht, das Bevölkerungswachstum zu regulieren; unserer Entschlossenheit, Kriege und Aus-einandersetzungen im Inneren zu vermeiden; unserer Bereitschaft, der einen Wissenschaft die Lenkung jener Dinge anzuvertrauen, die das eigentliche Gebiet. Für lange Zeiten wird der alte Adam in uns noch so mächtig sein, dass jedermann wünschen wird, irgendeine Arbeit tun. Mit Drei-Stunden-Schichten oder einer Fünfzehn-Stunden-Woche kann das Problem eine ganze Weile hinausgeschoben werden. Denn drei Stunden Tag reichen völlig aus, um den alten Adam in den meisten von uns zu befriedigen! Die Geschwindigkeit, mit der wir unserem Ziel der wirtschaftlichen Seligkeit näherkommen, wird von vier Dingen bestimmt werden – unserer Macht, das Bevölkerungswachstum zu regulieren; unserer Entschlossenheit, Kriege und Aus-einandersetzungen im Inneren zu vermeiden; unserer Bereitschaft, der einen Wissenschaft die Lenkung jener Dinge anzuvertrauen, die das eigentliche Gebiet."
              },
              {
                "type": "infobox",
                "text": "BIP = Konsum (privat und staatlich) + Investitionen (privat und staatlich) + Exporte – Importe."
              },
              {
                "type": "text",
                "text": "Für lange Zeiten wird der alte Adam in uns noch so mächtig sein, dass jedermann wünschen wird, irgendeine Arbeit tun. Mit Drei-Stunden-Schichten oder einer Fünfzehn-Stunden-Woche kann das Problem eine ganze Weile hinausgeschoben werden. Denn drei Stunden Tag reichen völlig aus, um den alten Adam in den meisten von uns zu befriedigen! Die Geschwindigkeit, mit der wir unserem Ziel der wirtschaftlichen Seligkeit näherkommen, wird von vier Dingen bestimmt werden – unserer Macht, das Bevölkerungswachstum zu regulieren; unserer Entschlossenheit, Kriege und Aus-einandersetzungen im Inneren zu vermeiden; unserer Bereitschaft, der einen Wissenschaft die Lenkung jener Dinge anzuvertrauen, die das eigentliche Gebiet."
              },
              {
                "type": "quote",
                "text": "Gerade bei quantitativen Messungen legt der definitive Charakter der Ergebnisse häufig fälschlicherweise eine Präzision und Einfachheit in der Form des gemessenen Objekts nahe. Messungen des nationalen Einkommens sind diesen Illusionen und möglichem Missbrauch dadurch ausgeliefert, insbesondere, da sie sich mit Angelegenheiten befassen, die im Zentrum des Konflikts gegnerischer sozialer Gruppen stehen, bei dem die Effektivität eines Arguments häufig von allzu starken Vereinfachungen abhängt.",
                "imagesource": "assets/images/test4.png",
                "originator": "Simon Kuznets",
                "year": 1934
              },
              {
                "type": "chart",
                "chart": {
                  "data": {
                    "type": "bar",
                    "data": {
                      "labels": [
                        "1870",
                        "1871",
                        "1872",
                        "1878",
                        "1880",
                        "1890",
                        "1895",
                        "1900",
                        "1905",
                        "1910",
                        "1911",
                        "1912",
                        "1913",
                        "1914"
                      ],
                      "datasets": [
                        {
                          "label": "# of Votes",
                          "data": [
                            0.22,
                            1.73,
                            2.35,
                            6.8,
                            8.6,
                            16.9,
                            21.3,
                            55.2,
                            83.7,
                            102.3,
                            109.5,
                            109.3,
                            112.5,
                            76.7
                          ],
                          "backgroundColor": [
                            "rgba(189, 9, 7, 1)",
                            "rgba(189, 9, 7, 1)",
                            "rgba(189, 9, 7, 1)",
                            "rgba(189, 9, 7, 1)",
                            "rgba(189, 9, 7, 1)",
                            "rgba(189, 9, 7, 1)",
                            "rgba(189, 9, 7, 1)",
                            "rgba(189, 9, 7, 1)",
                            "rgba(189, 9, 7, 1)",
                            "rgba(189, 9, 7, 1)",
                            "rgba(189, 9, 7, 1)",
                            "rgba(189, 9, 7, 1)",
                            "rgba(189, 9, 7, 1)",
                            "rgba(189, 9, 7, 1)"
                          ],
                          "borderWidth": 1
                        }
                      ]
                    },
                    "options": {
                      "responsive": false,
                      "display": true,
                      "scales": {
                        "xAxes": [
                          {
                            "barThickness": 20
                          }
                        ]
                      },
                      "plugins": {
                        "deferred": {
                          "xOffset": 150,
                          "yOffset": "50%",
                          "delay": 500
                        }
                      }
                    }
                  }
                }
              }
            ]
          },
          {
            "title": "Nichts mehr zu tun:<br/>Auf dem Weg zur <i>wirtschaftlichen Seligkeit?</i>",
            "introduction": "Der berühmte britische Ökonom John Maynard Keynes stellte<br/>die folgende Prognose bereits im Jahr 1930 auf. Sie ist bisher nur teilweise eingetreten. Ob sie sich in den nächsten 100 Jahren bewahrheitet?",
            "content": [
              {
                "type": "image",
                "image": {
                  "description": "some nice habour",
                  "image_orginal_path": "assets/images/test1.jpg",
                  "image_path": "assets/images/test1.jpg",
                  "image_thumb_path": "assets/images/test1.jpg",
                  "width_original": 2170,
                  "width": 2170,
                  "width_thumb": 2170,
                  "height_original": 1446,
                  "height": 1446,
                  "height_thumb": 1446,
                  "size_original": 711555,
                  "size": 391439,
                  "size_thumb": 14836
                }
              },
              {
                "type": "text",
                "text": "Für lange Zeiten wird der alte Adam in uns noch so mächtig sein, dass jedermann wünschen wird, irgendeine Arbeit tun. Mit Drei-Stunden-Schichten oder einer Fünfzehn-Stunden-Woche kann das Problem eine ganze Weile hinausgeschoben werden. Denn drei Stunden Tag reichen völlig aus, um den alten Adam in den meisten von uns zu befriedigen! Die Geschwindigkeit, mit der wir unserem Ziel der wirtschaftlichen Seligkeit näherkommen, wird von vier Dingen bestimmt werden – unserer Macht, das Bevölkerungswachstum zu regulieren; unserer Entschlossenheit, Kriege und Aus-einandersetzungen im Inneren zu vermeiden; unserer Bereitschaft, der einen Wissenschaft die Lenkung jener Dinge anzuvertrauen, die das eigentliche Gebiet."
              },
              {
                "type": "text",
                "text": "Für lange Zeiten wird der alte Adam in uns noch so mächtig sein, dass jedermann wünschen wird, irgendeine Arbeit tun. Mit Drei-Stunden-Schichten oder einer Fünfzehn-Stunden-Woche kann das Problem eine ganze Weile hinausgeschoben werden. Denn drei Stunden Tag reichen völlig aus, um den alten Adam in den meisten von uns zu befriedigen! Die Geschwindigkeit, mit der wir unserem Ziel der wirtschaftlichen Seligkeit näherkommen, wird von vier Dingen bestimmt werden – unserer Macht, das Bevölkerungswachstum zu regulieren; unserer Entschlossenheit, Kriege und Aus-einandersetzungen im Inneren zu vermeiden; unserer Bereitschaft, der einen Wissenschaft die Lenkung jener Dinge anzuvertrauen, die das eigentliche Gebiet."
              }
            ]
          }
        ]
      },
      {
        "title": "Titel - Kapitel 2",
        "introduction": "Die Beschäftigung mit dem Thema „Wirtschaftspolitik“ soll mit einem Blick in die ferne Zukunft beginnen. Wie werden Sie, wie werden Ihre Kinder oder Enkelkinder in 20 Jahren, in 50 Jahren, in 100 Jahren leben und wirtschaften?",
        "learning_sections": [
          {
            "title": "Nichts mehr zu tun:<br/>Auf dem Weg zur <i>wirtschaftlichen Seligkeit?</i>",
            "introduction": "Der berühmte britische Ökonom John Maynard Keynes stellte<br/>die folgende Prognose bereits im Jahr 1930 auf. Sie ist bisher nur teilweise eingetreten. Ob sie sich in den nächsten 100 Jahren bewahrheitet?",
            "content": [
              {
                "type": "image",
                "image": {
                  "description": "some nice habour",
                  "image_orginal_path": "assets/images/test1.jpg",
                  "image_path": "assets/images/test1.jpg",
                  "image_thumb_path": "assets/images/test1.jpg",
                  "width_original": 2170,
                  "width": 2170,
                  "width_thumb": 2170,
                  "height_original": 1446,
                  "height": 1446,
                  "height_thumb": 1446,
                  "size_original": 711555,
                  "size": 391439,
                  "size_thumb": 14836
                }
              },
              {
                "type": "text",
                "text": "Für lange Zeiten wird der alte Adam in uns noch so mächtig sein, dass jedermann wünschen wird, irgendeine Arbeit tun. Mit Drei-Stunden-Schichten oder einer Fünfzehn-Stunden-Woche kann das Problem eine ganze Weile hinausgeschoben werden. Denn drei Stunden Tag reichen völlig aus, um den alten Adam in den meisten von uns zu befriedigen! Die Geschwindigkeit, mit der wir unserem Ziel der wirtschaftlichen Seligkeit näherkommen, wird von vier Dingen bestimmt werden – unserer Macht, das Bevölkerungswachstum zu regulieren; unserer Entschlossenheit, Kriege und Aus-einandersetzungen im Inneren zu vermeiden; unserer Bereitschaft, der einen Wissenschaft die Lenkung jener Dinge anzuvertrauen, die das eigentliche Gebiet."
              },
              {
                "type": "image",
                "image": {
                  "description": "some nice habour",
                  "image_orginal_path": "assets/images/test1.jpg",
                  "image_path": "assets/images/test1.jpg",
                  "image_thumb_path": "assets/images/test1.jpg",
                  "width_original": 2170,
                  "width": 2170,
                  "width_thumb": 2170,
                  "height_original": 1446,
                  "height": 1446,
                  "height_thumb": 1446,
                  "size_original": 711555,
                  "size": 391439,
                  "size_thumb": 14836
                }
              }
            ]
          }
        ]
      },
      {
        "title": "Titel - Kapitel 3",
        "introduction": "Die Beschäftigung mit dem Thema „Wirtschaftspolitik“ soll mit einem Blick in die ferne Zukunft beginnen. Wie werden Sie, wie werden Ihre Kinder oder Enkelkinder in 20 Jahren, in 50 Jahren, in 100 Jahren leben und wirtschaften?",
        "learning_sections": [
          {
            "title": "Nichts mehr zu tun:<br/>Auf dem Weg zur <i>wirtschaftlichen Seligkeit?</i>",
            "introduction": "Der berühmte britische Ökonom John Maynard Keynes stellte<br/>die folgende Prognose bereits im Jahr 1930 auf. Sie ist bisher nur teilweise eingetreten. Ob sie sich in den nächsten 100 Jahren bewahrheitet?",
            "content": [
              {
                "type": "image",
                "image": {
                  "description": "some nice habour",
                  "image_orginal_path": "assets/images/test1.jpg",
                  "image_path": "assets/images/test1.jpg",
                  "image_thumb_path": "assets/images/test1.jpg",
                  "width_original": 2170,
                  "width": 2170,
                  "width_thumb": 2170,
                  "height_original": 1446,
                  "height": 1446,
                  "height_thumb": 1446,
                  "size_original": 711555,
                  "size": 391439,
                  "size_thumb": 14836
                }
              },
              {
                "type": "text",
                "text": "Für lange Zeiten wird der alte Adam in uns noch so mächtig sein, dass jedermann wünschen wird, irgendeine Arbeit tun. Mit Drei-Stunden-Schichten oder einer Fünfzehn-Stunden-Woche kann das Problem eine ganze Weile hinausgeschoben werden. Denn drei Stunden Tag reichen völlig aus, um den alten Adam in den meisten von uns zu befriedigen! Die Geschwindigkeit, mit der wir unserem Ziel der wirtschaftlichen Seligkeit näherkommen, wird von vier Dingen bestimmt werden – unserer Macht, das Bevölkerungswachstum zu regulieren; unserer Entschlossenheit, Kriege und Aus-einandersetzungen im Inneren zu vermeiden; unserer Bereitschaft, der einen Wissenschaft die Lenkung jener Dinge anzuvertrauen, die das eigentliche Gebiet."
              },
              {
                "type": "image",
                "image": {
                  "description": "some nice habour",
                  "image_orginal_path": "assets/images/test1.jpg",
                  "image_path": "assets/images/test1.jpg",
                  "image_thumb_path": "assets/images/test1.jpg",
                  "width_original": 2170,
                  "width": 2170,
                  "width_thumb": 2170,
                  "height_original": 1446,
                  "height": 1446,
                  "height_thumb": 1446,
                  "size_original": 711555,
                  "size": 391439,
                  "size_thumb": 14836
                }
              }
            ]
          },
          {
            "title": "Nichts mehr zu tun:<br/>Auf dem Weg zur <i>wirtschaftlichen Seligkeit?</i>",
            "introduction": "Der berühmte britische Ökonom John Maynard Keynes stellte<br/>die folgende Prognose bereits im Jahr 1930 auf. Sie ist bisher nur teilweise eingetreten. Ob sie sich in den nächsten 100 Jahren bewahrheitet?",
            "content": [
              {
                "type": "image",
                "image": {
                  "description": "some nice habour",
                  "image_orginal_path": "assets/images/test1.jpg",
                  "image_path": "assets/images/test1.jpg",
                  "image_thumb_path": "assets/images/test1.jpg",
                  "width_original": 2170,
                  "width": 2170,
                  "width_thumb": 2170,
                  "height_original": 1446,
                  "height": 1446,
                  "height_thumb": 1446,
                  "size_original": 711555,
                  "size": 391439,
                  "size_thumb": 14836
                }
              },
              {
                "type": "text",
                "text": "Für lange Zeiten wird der alte Adam in uns noch so mächtig sein, dass jedermann wünschen wird, irgendeine Arbeit tun. Mit Drei-Stunden-Schichten oder einer Fünfzehn-Stunden-Woche kann das Problem eine ganze Weile hinausgeschoben werden. Denn drei Stunden Tag reichen völlig aus, um den alten Adam in den meisten von uns zu befriedigen! Die Geschwindigkeit, mit der wir unserem Ziel der wirtschaftlichen Seligkeit näherkommen, wird von vier Dingen bestimmt werden – unserer Macht, das Bevölkerungswachstum zu regulieren; unserer Entschlossenheit, Kriege und Aus-einandersetzungen im Inneren zu vermeiden; unserer Bereitschaft, der einen Wissenschaft die Lenkung jener Dinge anzuvertrauen, die das eigentliche Gebiet."
              }
            ]
          },
          {
            "title": "Nichts mehr zu tun:<br/>Auf dem Weg zur <i>wirtschaftlichen Seligkeit?</i>",
            "introduction": "Der berühmte britische Ökonom John Maynard Keynes stellte<br/>die folgende Prognose bereits im Jahr 1930 auf. Sie ist bisher nur teilweise eingetreten. Ob sie sich in den nächsten 100 Jahren bewahrheitet?",
            "content": [
              {
                "type": "image",
                "image": {
                  "description": "some nice habour",
                  "image_orginal_path": "assets/images/test1.jpg",
                  "image_path": "assets/images/test1.jpg",
                  "image_thumb_path": "assets/images/test1.jpg",
                  "width_original": 2170,
                  "width": 2170,
                  "width_thumb": 2170,
                  "height_original": 1446,
                  "height": 1446,
                  "height_thumb": 1446,
                  "size_original": 711555,
                  "size": 391439,
                  "size_thumb": 14836
                }
              },
              {
                "type": "text",
                "text": "Für lange Zeiten wird der alte Adam in uns noch so mächtig sein, dass jedermann wünschen wird, irgendeine Arbeit tun. Mit Drei-Stunden-Schichten oder einer Fünfzehn-Stunden-Woche kann das Problem eine ganze Weile hinausgeschoben werden. Denn drei Stunden Tag reichen völlig aus, um den alten Adam in den meisten von uns zu befriedigen! Die Geschwindigkeit, mit der wir unserem Ziel der wirtschaftlichen Seligkeit näherkommen, wird von vier Dingen bestimmt werden – unserer Macht, das Bevölkerungswachstum zu regulieren; unserer Entschlossenheit, Kriege und Aus-einandersetzungen im Inneren zu vermeiden; unserer Bereitschaft, der einen Wissenschaft die Lenkung jener Dinge anzuvertrauen, die das eigentliche Gebiet."
              }
            ]
          }
        ]
      },
      {
        "title": "Titel - Kapitel 4",
        "introduction": "Die Beschäftigung mit dem Thema „Wirtschaftspolitik“ soll mit einem Blick in die ferne Zukunft beginnen. Wie werden Sie, wie werden Ihre Kinder oder Enkelkinder in 20 Jahren, in 50 Jahren, in 100 Jahren leben und wirtschaften?",
        "learning_sections": [
          {
            "title": "Nichts mehr zu tun:<br/>Auf dem Weg zur <i>wirtschaftlichen Seligkeit?</i>",
            "introduction": "Der berühmte britische Ökonom John Maynard Keynes stellte<br/>die folgende Prognose bereits im Jahr 1930 auf. Sie ist bisher nur teilweise eingetreten. Ob sie sich in den nächsten 100 Jahren bewahrheitet?",
            "content": [
              {
                "type": "image",
                "image": {
                  "description": "some nice habour",
                  "image_orginal_path": "assets/images/test1.jpg",
                  "image_path": "assets/images/test1.jpg",
                  "image_thumb_path": "assets/images/test1.jpg",
                  "width_original": 2170,
                  "width": 2170,
                  "width_thumb": 2170,
                  "height_original": 1446,
                  "height": 1446,
                  "height_thumb": 1446,
                  "size_original": 711555,
                  "size": 391439,
                  "size_thumb": 14836
                }
              },
              {
                "type": "text",
                "text": "Für lange Zeiten wird der alte Adam in uns noch so mächtig sein, dass jedermann wünschen wird, irgendeine Arbeit tun. Mit Drei-Stunden-Schichten oder einer Fünfzehn-Stunden-Woche kann das Problem eine ganze Weile hinausgeschoben werden. Denn drei Stunden Tag reichen völlig aus, um den alten Adam in den meisten von uns zu befriedigen! Die Geschwindigkeit, mit der wir unserem Ziel der wirtschaftlichen Seligkeit näherkommen, wird von vier Dingen bestimmt werden – unserer Macht, das Bevölkerungswachstum zu regulieren; unserer Entschlossenheit, Kriege und Aus-einandersetzungen im Inneren zu vermeiden; unserer Bereitschaft, der einen Wissenschaft die Lenkung jener Dinge anzuvertrauen, die das eigentliche Gebiet."
              },
              {
                "type": "image",
                "image": {
                  "description": "some nice habour",
                  "image_orginal_path": "assets/images/test1.jpg",
                  "image_path": "assets/images/test1.jpg",
                  "image_thumb_path": "assets/images/test1.jpg",
                  "width_original": 2170,
                  "width": 2170,
                  "width_thumb": 2170,
                  "height_original": 1446,
                  "height": 1446,
                  "height_thumb": 1446,
                  "size_original": 711555,
                  "size": 391439,
                  "size_thumb": 14836
                }
              }
            ]
          }
        ]
      },
      {
        "title": "Titel - Kapitel 5",
        "introduction": "Die Beschäftigung mit dem Thema „Wirtschaftspolitik“ soll mit einem Blick in die ferne Zukunft beginnen. Wie werden Sie, wie werden Ihre Kinder oder Enkelkinder in 20 Jahren, in 50 Jahren, in 100 Jahren leben und wirtschaften?",
        "learning_sections": [
          {
            "title": "Nichts mehr zu tun:<br/>Auf dem Weg zur <i>wirtschaftlichen Seligkeit?</i>",
            "introduction": "Der berühmte britische Ökonom John Maynard Keynes stellte<br/>die folgende Prognose bereits im Jahr 1930 auf. Sie ist bisher nur teilweise eingetreten. Ob sie sich in den nächsten 100 Jahren bewahrheitet?",
            "content": [
              {
                "type": "image",
                "image": {
                  "description": "some nice habour",
                  "image_orginal_path": "assets/images/test1.jpg",
                  "image_path": "assets/images/test1.jpg",
                  "image_thumb_path": "assets/images/test1.jpg",
                  "width_original": 2170,
                  "width": 2170,
                  "width_thumb": 2170,
                  "height_original": 1446,
                  "height": 1446,
                  "height_thumb": 1446,
                  "size_original": 711555,
                  "size": 391439,
                  "size_thumb": 14836
                }
              },
              {
                "type": "text",
                "text": "Für lange Zeiten wird der alte Adam in uns noch so mächtig sein, dass jedermann wünschen wird, irgendeine Arbeit tun. Mit Drei-Stunden-Schichten oder einer Fünfzehn-Stunden-Woche kann das Problem eine ganze Weile hinausgeschoben werden. Denn drei Stunden Tag reichen völlig aus, um den alten Adam in den meisten von uns zu befriedigen! Die Geschwindigkeit, mit der wir unserem Ziel der wirtschaftlichen Seligkeit näherkommen, wird von vier Dingen bestimmt werden – unserer Macht, das Bevölkerungswachstum zu regulieren; unserer Entschlossenheit, Kriege und Aus-einandersetzungen im Inneren zu vermeiden; unserer Bereitschaft, der einen Wissenschaft die Lenkung jener Dinge anzuvertrauen, die das eigentliche Gebiet."
              }
            ]
          },
          {
            "title": "Nichts mehr zu tun:<br/>Auf dem Weg zur <i>wirtschaftlichen Seligkeit?</i>",
            "introduction": "Der berühmte britische Ökonom John Maynard Keynes stellte<br/>die folgende Prognose bereits im Jahr 1930 auf. Sie ist bisher nur teilweise eingetreten. Ob sie sich in den nächsten 100 Jahren bewahrheitet?",
            "content": [
              {
                "type": "image",
                "image": {
                  "description": "some nice habour",
                  "image_orginal_path": "assets/images/test1.jpg",
                  "image_path": "assets/images/test1.jpg",
                  "image_thumb_path": "assets/images/test1.jpg",
                  "width_original": 2170,
                  "width": 2170,
                  "width_thumb": 2170,
                  "height_original": 1446,
                  "height": 1446,
                  "height_thumb": 1446,
                  "size_original": 711555,
                  "size": 391439,
                  "size_thumb": 14836
                }
              },
              {
                "type": "text",
                "text": "Für lange Zeiten wird der alte Adam in uns noch so mächtig sein, dass jedermann wünschen wird, irgendeine Arbeit tun. Mit Drei-Stunden-Schichten oder einer Fünfzehn-Stunden-Woche kann das Problem eine ganze Weile hinausgeschoben werden. Denn drei Stunden Tag reichen völlig aus, um den alten Adam in den meisten von uns zu befriedigen! Die Geschwindigkeit, mit der wir unserem Ziel der wirtschaftlichen Seligkeit näherkommen, wird von vier Dingen bestimmt werden – unserer Macht, das Bevölkerungswachstum zu regulieren; unserer Entschlossenheit, Kriege und Aus-einandersetzungen im Inneren zu vermeiden; unserer Bereitschaft, der einen Wissenschaft die Lenkung jener Dinge anzuvertrauen, die das eigentliche Gebiet."
              },
              {
                "type": "image",
                "image": {
                  "description": "some nice habour",
                  "image_orginal_path": "assets/images/test1.jpg",
                  "image_path": "assets/images/test1.jpg",
                  "image_thumb_path": "assets/images/test1.jpg",
                  "width_original": 2170,
                  "width": 2170,
                  "width_thumb": 2170,
                  "height_original": 1446,
                  "height": 1446,
                  "height_thumb": 1446,
                  "size_original": 711555,
                  "size": 391439,
                  "size_thumb": 14836
                }
              }
            ]
          }
        ]
      },
      {
        "title": "Titel - Kapitel 6",
        "introduction": "Die Beschäftigung mit dem Thema „Wirtschaftspolitik“ soll mit einem Blick in die ferne Zukunft beginnen. Wie werden Sie, wie werden Ihre Kinder oder Enkelkinder in 20 Jahren, in 50 Jahren, in 100 Jahren leben und wirtschaften?",
        "learning_sections": [
          {
            "title": "Nichts mehr zu tun:<br/>Auf dem Weg zur <i>wirtschaftlichen Seligkeit?</i>",
            "introduction": "Der berühmte britische Ökonom John Maynard Keynes stellte<br/>die folgende Prognose bereits im Jahr 1930 auf. Sie ist bisher nur teilweise eingetreten. Ob sie sich in den nächsten 100 Jahren bewahrheitet?",
            "content": [
              {
                "type": "image",
                "image": {
                  "description": "some nice habour",
                  "image_orginal_path": "assets/images/test1.jpg",
                  "image_path": "assets/images/test1.jpg",
                  "image_thumb_path": "assets/images/test1.jpg",
                  "width_original": 2170,
                  "width": 2170,
                  "width_thumb": 2170,
                  "height_original": 1446,
                  "height": 1446,
                  "height_thumb": 1446,
                  "size_original": 711555,
                  "size": 391439,
                  "size_thumb": 14836
                }
              },
              {
                "type": "text",
                "text": "Für lange Zeiten wird der alte Adam in uns noch so mächtig sein, dass jedermann wünschen wird, irgendeine Arbeit tun. Mit Drei-Stunden-Schichten oder einer Fünfzehn-Stunden-Woche kann das Problem eine ganze Weile hinausgeschoben werden. Denn drei Stunden Tag reichen völlig aus, um den alten Adam in den meisten von uns zu befriedigen! Die Geschwindigkeit, mit der wir unserem Ziel der wirtschaftlichen Seligkeit näherkommen, wird von vier Dingen bestimmt werden – unserer Macht, das Bevölkerungswachstum zu regulieren; unserer Entschlossenheit, Kriege und Aus-einandersetzungen im Inneren zu vermeiden; unserer Bereitschaft, der einen Wissenschaft die Lenkung jener Dinge anzuvertrauen, die das eigentliche Gebiet."
              },
              {
                "type": "image",
                "image": {
                  "description": "some nice habour",
                  "image_orginal_path": "assets/images/test1.jpg",
                  "image_path": "assets/images/test1.jpg",
                  "image_thumb_path": "assets/images/test1.jpg",
                  "width_original": 2170,
                  "width": 2170,
                  "width_thumb": 2170,
                  "height_original": 1446,
                  "height": 1446,
                  "height_thumb": 1446,
                  "size_original": 711555,
                  "size": 391439,
                  "size_thumb": 14836
                }
              }
            ]
          }
        ]
      }
    ],
    "status": "success",
    "total": 5
  }
}